<svg xmlns="http://www.w3.org/2000/svg" width="478" height="828" style=""><rect id="backgroundrect" width="100%" height="100%" x="0" y="0" fill="none" stroke="none"/>
 <defs>
  <filter height="200%" width="200%" y="-50%" x="-50%" id="XMLID_354__blur">
   <feGaussianBlur stdDeviation="0" in="SourceGraphic"/>
  </filter>
 </defs>
 <g style="">
  <title>background</title>
  <rect fill="none" id="canvas_background" height="402" width="582" y="-1" x="-1"/>
 </g>
 <g style="" class="currentLayer">
  <title>Layer 1</title>
  <g id="XMLID_353_" class="selected" fill="#dadada" fill-opacity="1">
   <path fill="#dadada" filter="url(#XMLID_354__blur)" stroke="null" style="vector-effect: non-scaling-stroke;" d="m416,51.6c0,-28.8 -23.2,-51.6 -52,-51.6l-248.7,0c-28.8,0 -52.3,22.9 -52.3,51.6l0,94.3l0,519.5c0,28.8 23.5,52.6 52.3,52.6l248.7,0c28.8,0 52,-23.8 52,-52.6l0,-613.8zm-19,611.5c0,17.5 -13.7,31.9 -31.1,31.9l-249,0c-17.5,0 -31.9,-14.4 -31.9,-31.9l0,-613.3c0,-17.4 14.4,-30.8 31.9,-30.8l28.8,0c6.1,0 8.3,-0.4 8.7,7.3c0.4,8 5.9,13.2 13.3,15.5c2.5,0.8 5.3,1.2 8,1.2l5.4,0l120.7,0l5.4,0c2.7,0 5.5,-0.6 8,-1.4c7.4,-2.3 13,-7.1 13.3,-15.1c0.4,-7.7 2.6,-7.5 8.7,-7.5l28.5,0c17.5,0 31.1,13.4 31.1,30.8l0,613.3l0.2,0z" id="XMLID_354_" fill-opacity="1"/>
  </g>
 </g>
</svg>