﻿<?xml version="1.0" encoding="utf-8" ?>
<svg xmlns="http://www.w3.org/2000/svg" xmlns:xlink="http://www.w3.org/1999/xlink" width="1400" height="1050">
	<rect fill="none" stroke-width="2" stroke-miterlimit="4" stroke-opacity="0" width="1400" height="1050"/>
	<rect fill="rgb(255,255,255)" fill-opacity="0" stroke="none" width="1400" height="1050"/>
	<text fill="rgb(127,127,127)" stroke="none" font-size="14" font-family="Segoe UI" x="0" y="-7">
			Custom size
	</text>
	<text fill="rgb(189,189,189)" stroke="none" font-size="14" font-family="Segoe UI" x="78.189453" y="-7">
			1400×1050
	</text>
	<defs>
		<clipPath id="clip_0">
			<rect width="1400" height="1050" clip-rule="evenodd"/>
		</clipPath>
		<linearGradient id="gradient_0" gradientUnits="userSpaceOnUse" x1="174.75" y1="0" x2="174.75" y2="740">
			<stop offset="0" stop-color="rgb(255,255,255)"/>
			<stop offset="1" stop-color="rgb(219,213,213)"/>
		</linearGradient>
	</defs>
	<g clip-path="url(#clip_0)">
		<path fill="url(#gradient_0)" stroke="none" transform="translate(520 154)" d="M30 0L330 0Q330.768 0 331.532 0.0349725Q332.295 0.069945 333.051 0.139819Q333.808 0.209692 334.556 0.314325Q335.305 0.418957 336.043 0.558134Q336.782 0.697312 337.509 0.87075Q338.236 1.04419 338.951 1.25154Q339.665 1.45888 340.365 1.69971Q341.065 1.94054 341.75 2.21437Q342.435 2.48819 343.102 2.79445Q343.77 3.10071 344.419 3.43877Q345.068 3.77684 345.697 4.14603Q346.326 4.51522 346.935 4.91477Q347.543 5.31433 348.129 5.74343Q348.715 6.17254 349.278 6.63032Q349.84 7.0881 350.378 7.57363Q350.916 8.05915 351.429 8.57143Q351.941 9.08371 352.426 9.62169Q352.912 10.1597 353.37 10.7223Q353.828 11.2849 354.257 11.8709Q354.686 12.457 355.085 13.0653Q355.485 13.6736 355.854 14.303Q356.223 14.9323 356.561 15.5814Q356.899 16.2305 357.206 16.898Q357.512 17.5655 357.786 18.25Q358.06 18.9346 358.3 19.6348Q358.541 20.335 358.749 21.0495Q358.956 21.7639 359.129 22.4912Q359.303 23.2184 359.442 23.9569Q359.581 24.6954 359.686 25.4437Q359.79 26.192 359.86 26.9485Q359.93 27.7051 359.965 28.4683Q360 29.2316 360 30L360 710Q360 710.768 359.965 711.532Q359.93 712.295 359.86 713.052Q359.79 713.808 359.686 714.556Q359.581 715.305 359.442 716.043Q359.303 716.782 359.129 717.509Q358.956 718.236 358.748 718.951Q358.541 719.665 358.3 720.365Q358.06 721.065 357.786 721.75Q357.512 722.435 357.206 723.102Q356.899 723.77 356.561 724.419Q356.223 725.068 355.854 725.697Q355.485 726.327 355.085 726.935Q354.686 727.543 354.257 728.129Q353.828 728.715 353.37 729.278Q352.912 729.84 352.426 730.378Q351.941 730.916 351.429 731.429Q350.916 731.941 350.378 732.426Q349.84 732.912 349.278 733.37Q348.715 733.828 348.129 734.257Q347.543 734.686 346.935 735.085Q346.326 735.485 345.697 735.854Q345.068 736.223 344.419 736.561Q343.77 736.899 343.102 737.206Q342.435 737.512 341.75 737.786Q341.065 738.059 340.365 738.3Q339.665 738.541 338.951 738.748Q338.236 738.956 337.509 739.129Q336.782 739.303 336.043 739.442Q335.305 739.581 334.556 739.686Q333.808 739.79 333.051 739.86Q332.295 739.93 331.532 739.965Q330.768 740 330 740L30 740Q29.2316 740 28.4683 739.965Q27.7051 739.93 26.9485 739.86Q26.192 739.79 25.4437 739.686Q24.6954 739.581 23.9569 739.442Q23.2184 739.303 22.4912 739.129Q21.7639 738.956 21.0495 738.748Q20.335 738.541 19.6348 738.3Q18.9346 738.059 18.25 737.786Q17.5655 737.512 16.898 737.206Q16.2305 736.899 15.5814 736.561Q14.9323 736.223 14.303 735.854Q13.6736 735.485 13.0653 735.085Q12.457 734.686 11.8709 734.257Q11.2849 733.828 10.7223 733.37Q10.1597 732.912 9.62169 732.426Q9.08371 731.941 8.57143 731.429Q8.05915 730.916 7.57363 730.378Q7.0881 729.84 6.63032 729.278Q6.17254 728.715 5.74343 728.129Q5.31433 727.543 4.91477 726.935Q4.51522 726.327 4.14603 725.697Q3.77684 725.068 3.43877 724.419Q3.10071 723.77 2.79445 723.102Q2.48819 722.435 2.21437 721.75Q1.94054 721.065 1.69971 720.365Q1.45888 719.665 1.25154 718.951Q1.04419 718.236 0.87075 717.509Q0.697312 716.782 0.558134 716.043Q0.418957 715.305 0.314325 714.556Q0.209692 713.808 0.139819 713.052Q0.069945 712.295 0.0349725 711.532Q0 710.768 0 710L0 30Q0 29.2316 0.0349725 28.4683Q0.069945 27.7051 0.139819 26.9485Q0.209692 26.192 0.314325 25.4437Q0.418957 24.6954 0.558134 23.9569Q0.697312 23.2184 0.87075 22.4912Q1.04419 21.7639 1.25154 21.0495Q1.45888 20.335 1.69971 19.6348Q1.94054 18.9346 2.21437 18.25Q2.48819 17.5655 2.79445 16.898Q3.10071 16.2305 3.43877 15.5814Q3.77684 14.9323 4.14603 14.303Q4.51522 13.6736 4.91477 13.0653Q5.31433 12.457 5.74343 11.8709Q6.17254 11.2849 6.63032 10.7223Q7.0881 10.1597 7.57363 9.62169Q8.05915 9.08371 8.57143 8.57143Q9.08371 8.05915 9.62169 7.57363Q10.1597 7.0881 10.7223 6.63032Q11.2849 6.17254 11.8709 5.74343Q12.457 5.31433 13.0653 4.91477Q13.6736 4.51522 14.303 4.14603Q14.9323 3.77684 15.5814 3.43877Q16.2305 3.10071 16.898 2.79445Q17.5655 2.48819 18.25 2.21437Q18.9346 1.94054 19.6348 1.69971Q20.335 1.45888 21.0495 1.25154Q21.7639 1.04419 22.4912 0.87075Q23.2184 0.697312 23.9569 0.558134Q24.6954 0.418957 25.4437 0.314325Q26.192 0.209692 26.9485 0.139819Q27.7051 0.069945 28.4683 0.0349725Q29.2316 0 30 0Z"/>
	</g>
</svg>
