<?xml version="1.0" encoding="UTF-8" ?>
<!DOCTYPE svg PUBLIC "-//W3C//DTD SVG 1.1//EN" "http://www.w3.org/Graphics/SVG/1.1/DTD/svg11.dtd">
<svg width="357pt" height="708pt" viewBox="0 0 357 708" version="1.1" xmlns="http://www.w3.org/2000/svg">
<g id="#ffffffff">
<path fill="#ffffff" opacity="1.00" d=" M 0.00 0.00 L 357.00 0.00 L 357.00 68.59 C 322.20 112.22 287.05 155.58 252.11 199.10 C 168.09 303.57 83.97 407.97 0.00 512.47 L 0.00 0.00 Z" />
</g>
</svg>
