<?xml version="1.0" encoding="UTF-8" ?>
<!DOCTYPE svg PUBLIC "-//W3C//DTD SVG 1.1//EN" "http://www.w3.org/Graphics/SVG/1.1/DTD/svg11.dtd">
<svg width="357pt" height="708pt" viewBox="0 0 357 708" version="1.1" xmlns="http://www.w3.org/2000/svg">
<g id="#ffffffff">
<path fill="#ffffff" opacity="1.00" d=" M 0.00 0.00 L 357.00 0.00 L 357.00 708.00 L 0.00 708.00 L 0.00 0.00 M 3.00 3.00 C 3.00 237.00 3.00 471.00 3.00 705.00 C 120.00 705.00 237.00 705.00 354.00 705.00 C 354.00 471.00 354.00 237.00 354.00 3.00 C 324.39 3.00 294.77 3.00 265.16 3.00 C 264.55 5.04 264.05 7.15 263.02 9.04 C 260.80 13.41 255.80 15.78 251.06 16.00 C 202.69 16.00 154.31 16.00 105.94 16.00 C 102.31 15.89 98.75 14.37 96.06 11.95 C 93.69 9.51 92.70 6.19 91.84 3.00 C 62.23 3.00 32.61 3.00 3.00 3.00 Z" />
</g>
</svg>
