Drums,$5926555,4
Perc,$927655,7
Bass,$555792,14
Chords,$579288,12
Hook,$928855,70
Arp,$559288,12
Lead,$556892,13
Pad,$8B9255,86
SFX,$885592,26
Foley,$92557A,24
Kick,$926555,5
Snare,$555792,4
Clap,$689255,43
Hat,$559288,6
Ride,$556892,6
Crash,$92557A,6
Piano,$579255,12
Strings,$928855,3
Harp,$885592,11
Guitar,$556892,2
Acoustic,$557A92,1
Brass,$559288,8
Bell,$62AB9F,78
Organ,$579255,9
Vocal,$885592,20
Synth,$925568,16
Sample,$555792,18
Loop,$559276,19
Control,$928855,36
MIDI,$925557,96