<svg width="95.25" height="191.029" xmlns="http://www.w3.org/2000/svg" xmlns:xlink="http://www.w3.org/1999/xlink">
 <defs>
  <filter color-interpolation-filters="sRGB" height="1.052" y="-0.026" width="1.65" x="-0.325" id="e">
   <feGaussianBlur stdDeviation="0.071"/>
  </filter>
  <clipPath id="c" clipPathUnits="userSpaceOnUse">
   <path id="svg_2" stroke-dashoffset="0" stroke-miterlimit="4" stroke-linecap="round" stroke-width="0.026" fill-rule="nonzero" fill="#000" d="m0.451,39.688a0.45,0.45 0 0 0 -0.451,0.45l0,20.945c0,0.25 0.201,0.451 0.451,0.451l3.474,0a0.45,0.45 0 0 0 0.451,-0.45l0,-20.946a0.45,0.45 0 0 0 -0.45,-0.451l-3.475,0.001z"/>
  </clipPath>
  <linearGradient id="b">
   <stop stop-opacity="0.275" stop-color="#cbcbcb" offset="0"/>
   <stop stop-color="#cbcbcb" offset="0.04"/>
   <stop stop-color="#cbcbcb" offset="0.96"/>
   <stop stop-opacity="0.276" stop-color="#cbcbcb" offset="1"/>
  </linearGradient>
  <linearGradient id="a">
   <stop stop-opacity="0.275" stop-color="#cbcbcb" offset="0"/>
   <stop stop-color="#cbcbcb" offset="0.05"/>
   <stop stop-color="#cbcbcb" offset="0.95"/>
   <stop stop-opacity="0.276" stop-color="#cbcbcb" offset="1"/>
  </linearGradient>
  <linearGradient y2="1" x2="1.000001" y1="0.000001" x1="1.000001" id="f" xlink:href="#a" xmlns:xlink="http://www.w3.org/1999/xlink"/>
  <linearGradient y2="1" x2="1.000001" y1="0" x1="1.000001" id="g" xlink:href="#a" xmlns:xlink="http://www.w3.org/1999/xlink"/>
  <linearGradient y2="1" x2="1.000001" y1="0" x1="1.000001" id="h" xlink:href="#a" xmlns:xlink="http://www.w3.org/1999/xlink"/>
  <linearGradient y2="1" x2="-0.000001" y1="0" x1="-0.000001" id="svg_1" xlink:href="#b" xmlns:xlink="http://www.w3.org/1999/xlink"/>
 </defs>
 <g>
  <title>background</title>
  <rect fill="none" id="canvas_background" height="402" width="582" y="-1" x="-1"/>
 </g>
 <g>
  <title>Layer 1</title>
  <g id="svg_3" stroke-dashoffset="0" stroke-miterlimit="4" stroke-linecap="round" fill-rule="nonzero">
   <path id="svg_4" stroke-width="0.026" fill="#000" d="m94.799,44.206c0.25,0 0.451,0.201 0.451,0.451l0,20.945a0.45,0.45 0 0 1 -0.451,0.45l-3.474,0a0.45,0.45 0 0 1 -0.451,-0.45l0,-20.945c0,-0.25 0.2,-0.45 0.45,-0.45l3.475,-0.001z"/>
   <path id="svg_5" filter="url(#e)" stroke-width="0.024" fill="url(#svg_1)" d="m94.703,44.608a-0.401,0.401 0 0 0 0.402,0.402l0,20.238c0,0.223 -0.18,0.402 -0.402,0.402l-0.125,0l0,-21.042l0.125,0z" clip-path="url(#c)"/>
   <g id="svg_6">
    <rect id="svg_7" stroke-width="0.026" fill="#000" width="4.377" height="7.417" x="-0.014" y="25.857" ry="0.451"/>
    <path id="svg_8" filter="url(#filter5465)" stroke-width="0.024" fill="url(#f)" d="m0.534,26.259a0.401,0.401 0 0 0 -0.403,0.402l0,5.808c0,0.223 0.18,0.402 0.402,0.402l0.125,0l0,-6.612l-0.124,0z" clip-path="url(#clipPath5401)"/>
   </g>
   <path id="svg_9" stroke-width="0.026" fill="#000" d="m0.451,39.688a0.45,0.45 0 0 0 -0.451,0.45l0,12.913c0,0.25 0.201,0.451 0.451,0.451l3.474,0a0.45,0.45 0 0 0 0.451,-0.45l0,-12.914a0.45,0.45 0 0 0 -0.45,-0.451l-3.475,0.001z"/>
   <path id="svg_10" filter="url(#filter5465-7)" stroke-width="0.024" fill="url(#g)" d="m0.547,40.09a0.401,0.401 0 0 0 -0.402,0.402l0,12.206c0,0.223 0.18,0.402 0.402,0.402l0.125,0l0,-13.01l-0.125,0z" clip-path="url(#clipPath5589)"/>
   <g id="svg_11">
    <path id="svg_12" stroke-width="0.026" fill="#000" d="m0.451,57.06a0.45,0.45 0 0 0 -0.451,0.451l0,12.913c0,0.25 0.201,0.45 0.451,0.45l3.474,0a0.45,0.45 0 0 0 0.451,-0.45l0,-12.914a0.45,0.45 0 0 0 -0.45,-0.45l-3.475,0z"/>
    <path id="svg_13" filter="url(#filter5465-7-8)" stroke-width="0.024" fill="url(#h)" d="m0.547,57.462999a0.401,0.401 0 0 0 -0.402,0.402l0,12.206c0,0.223 0.18,0.402 0.402,0.402l0.125,0l0,-13.01l-0.125,0z" clip-path="url(#clipPath5589-7)"/>
   </g>
  </g>
 </g>
</svg>