<?xml version="1.0" encoding="UTF-8" standalone="no"?>
<svg
   xmlns:dc="http://purl.org/dc/elements/1.1/"
   xmlns:cc="http://creativecommons.org/ns#"
   xmlns:rdf="http://www.w3.org/1999/02/22-rdf-syntax-ns#"
   xmlns:svg="http://www.w3.org/2000/svg"
   xmlns="http://www.w3.org/2000/svg"
   width="120"
   height="120"
   viewBox="0 0 31.75 31.75"
   version="1.1"
   id="svg8">
  <defs
     id="defs2" />
  <metadata
     id="metadata5">
    <rdf:RDF>
      <cc:Work
         rdf:about="">
        <dc:format>image/svg+xml</dc:format>
        <dc:type
           rdf:resource="http://purl.org/dc/dcmitype/StillImage" />
        <dc:title></dc:title>
      </cc:Work>
    </rdf:RDF>
  </metadata>
  <path
     style="opacity:1;fill:#ffffff;fill-opacity:0.95192309;stroke:none;stroke-width:0.26458332;stroke-linecap:square;stroke-linejoin:miter;stroke-miterlimit:4;stroke-dasharray:none;stroke-opacity:1"
     id="path819"
     d="M 15.875,0.26458263 20.469637,7.9168565 29.394018,8.0697917 25.064273,15.875 29.394018,23.680209 20.469636,23.833144 15.875,31.485417 11.280363,23.833144 2.3559818,23.680208 6.6857271,15.875 2.3559822,8.069791 11.280364,7.916856 Z" />
  <g
     id="layer1"
     transform="translate(150.04721,-22.980078)" />
  <path
     d="M 15.875,0.26458263 20.469637,7.9168565 29.394018,8.0697917 25.064273,15.875 29.394018,23.680209 20.469636,23.833144 15.875,31.485417 11.280363,23.833144 2.3559818,23.680208 6.6857271,15.875 2.3559822,8.069791 11.280364,7.916856 Z"
     id="path823"
     style="opacity:1;fill:none;fill-opacity:0.95192309;stroke:#ffffff;stroke-width:0.26458332;stroke-linecap:square;stroke-linejoin:miter;stroke-miterlimit:4;stroke-dasharray:none;stroke-opacity:1" />
</svg>
