<?xml version="1.0" encoding="UTF-8" standalone="no"?>
<svg
   xmlns:dc="http://purl.org/dc/elements/1.1/"
   xmlns:cc="http://creativecommons.org/ns#"
   xmlns:rdf="http://www.w3.org/1999/02/22-rdf-syntax-ns#"
   xmlns:svg="http://www.w3.org/2000/svg"
   xmlns="http://www.w3.org/2000/svg"
   width="120"
   height="120"
   viewBox="0 0 31.75 31.75"
   version="1.1"
   id="svg8">
  <defs
     id="defs2" />
  <metadata
     id="metadata5">
    <rdf:RDF>
      <cc:Work
         rdf:about="">
        <dc:format>image/svg+xml</dc:format>
        <dc:type
           rdf:resource="http://purl.org/dc/dcmitype/StillImage" />
        <dc:title></dc:title>
      </cc:Work>
    </rdf:RDF>
  </metadata>
  <path
     style="opacity:1;fill:#ffffff;fill-opacity:0.95192309;stroke:none;stroke-width:0.26458332;stroke-linecap:square;stroke-linejoin:miter;stroke-miterlimit:4;stroke-dasharray:none;stroke-opacity:1"
     id="path817"
     d="m 15.875,0.26458263 5.401319,8.17613957 9.44507,2.6103938 -6.106871,7.663526 0.436055,9.789451 -9.175573,-3.43982 -9.1755734,3.43982 0.4360555,-9.789452 -6.1068711,-7.663526 9.44507,-2.6103931 z" />
  <g
     id="layer1"
     transform="translate(150.04721,-22.980078)" />
  <path
     d="m 15.875,0.26458263 5.401319,8.17613957 9.44507,2.6103938 -6.106871,7.663526 0.436055,9.789451 -9.175573,-3.43982 -9.1755734,3.43982 0.4360555,-9.789452 -6.1068711,-7.663526 9.44507,-2.6103931 z"
     id="path823"
     style="opacity:1;fill:none;fill-opacity:0.95192309;stroke:#ffffff;stroke-width:0.26458332;stroke-linecap:square;stroke-linejoin:miter;stroke-miterlimit:4;stroke-dasharray:none;stroke-opacity:1" />
</svg>
