<svg width="196" height="278" xmlns="http://www.w3.org/2000/svg">

 <g>
  <title>background</title>
  <rect fill="none" id="canvas_background" height="402" width="582" y="-1" x="-1"/>
 </g>
 <g>
  <title>Layer 1</title>
  <g id="#000000ff"/>
  <g id="#52b9f1ff">
   <path id="svg_1" d="m44.21,29.17c8.75,-5.83 19.79,-4.72 29.78,-6.08c14.54,-0.14 30.83,-0.48 43.78,7.15c3.16,11.68 1.61,24.68 7.07,35.85c0.21,1.96 2.57,2.24 3.21,3.91c-31.69,0.01 -63.38,-0.03 -95.07,0.02c10.38,-11.29 5.69,-27.72 11.23,-40.85z" fill="#52b9f1"/>
   <path id="svg_2" d="m34.05,221.95c30.99,0.1 61.98,0.06 92.97,0.01c-6.13,10.36 -5.82,23.03 -7.48,34.71c-0.72,2.53 -1.27,5.86 -4.2,6.74c-8.08,3.25 -16.81,3.44 -25.33,4.52c-14.34,-0.16 -29.4,1.65 -43.04,-3.87c-4.31,-1.27 -4.95,-6.68 -5.52,-10.38c-0.84,-10.85 -1.89,-22.11 -7.4,-31.73z" fill="#52b9f1"/>
  </g>
  <g id="#cdcfd0ff">
   <path id="svg_3" d="m15.04,91.98c1.7,-9.85 8.27,-18.65 17.94,-21.96c31.69,-0.05 63.38,-0.01 95.07,-0.02c7.16,2.93 13.82,8.25 16.08,15.92c2.69,5.91 1.57,12.59 1.96,18.88c2.23,0.07 4.44,0.41 5.73,2.44c0.19,7.52 0.47,15.08 0.05,22.59c-1.83,0.84 -3.82,1.13 -5.8,1.4c0.06,5.8 -0.53,11.66 0.12,17.43c0.41,0.19 1.21,0.56 1.61,0.74c0.33,12.5 0.31,25.03 0.12,37.54c-3.53,4.56 -0.69,10.93 -2.9,16.08c-1.49,9.29 -9.21,16.42 -18,18.94c-30.99,0.05 -61.98,0.09 -92.97,-0.01c-11.22,-2.68 -18.91,-13.66 -19.01,-24.94c-0.08,-35.01 -0.06,-70.02 0,-105.03m23.3,-16.55c-11.81,1.71 -19.33,14.19 -18.36,25.56c0.1,31.66 -0.09,63.32 0.09,94.98c0.59,12.17 11.96,21.9 23.92,21.03c25,-0.02 50.01,0.06 75.02,-0.04c11.09,0.33 20.65,-9.25 21.79,-20.03c0.42,-33.29 0.16,-66.6 0.13,-99.9c-0.46,-12.09 -10.75,-22.51 -22.92,-21.99c-26.55,0.17 -53.15,-0.58 -79.67,0.39z" fill="#cdcfd0"/>
  </g>
 </g>
</svg>