<?xml version="1.0" encoding="UTF-8" standalone="no"?>
<!-- Created with Inkscape (http://www.inkscape.org/) -->

<svg
   xmlns:dc="http://purl.org/dc/elements/1.1/"
   xmlns:cc="http://creativecommons.org/ns#"
   xmlns:rdf="http://www.w3.org/1999/02/22-rdf-syntax-ns#"
   xmlns:svg="http://www.w3.org/2000/svg"
   xmlns="http://www.w3.org/2000/svg"
   xmlns:sodipodi="http://sodipodi.sourceforge.net/DTD/sodipodi-0.dtd"
   xmlns:inkscape="http://www.inkscape.org/namespaces/inkscape"
   sodipodi:docname="@none.svg"
   inkscape:version="0.92.3 (2405546, 2018-03-11)"
   id="svg8"
   version="1.1"
   viewBox="0 0 13.229167 13.229167"
   height="50"
   width="50">
  <sodipodi:namedview
     inkscape:snap-intersection-paths="true"
     inkscape:snap-smooth-nodes="true"
     inkscape:snap-midpoints="false"
     inkscape:object-paths="true"
     inkscape:snap-bbox="true"
     fit-margin-bottom="0"
     fit-margin-right="0"
     fit-margin-left="0"
     fit-margin-top="0"
     units="px"
     inkscape:window-maximized="1"
     inkscape:window-y="-8"
     inkscape:window-x="-8"
     inkscape:window-height="832"
     inkscape:window-width="1600"
     inkscape:pagecheckerboard="true"
     showgrid="true"
     inkscape:current-layer="svg8"
     inkscape:document-units="px"
     inkscape:cy="26.616166"
     inkscape:cx="36.185499"
     inkscape:zoom="11.2"
     inkscape:pageshadow="2"
     inkscape:pageopacity="0.20784314"
     borderopacity="1.0"
     bordercolor="#666666"
     pagecolor="#000000"
     id="base"
     inkscape:snap-nodes="true"
     inkscape:bbox-nodes="true"
     inkscape:snap-others="false"
     inkscape:snap-global="false">
    <inkscape:grid
       originy="-236.23645"
       originx="142.87368"
       id="grid821"
       type="xygrid" />
  </sodipodi:namedview>
  <defs
     id="defs2">
    <inkscape:path-effect
       effect="simplify"
       id="path-effect827"
       is_visible="true"
       steps="1"
       threshold="0.00243902"
       smooth_angles="360"
       helper_size="0"
       simplify_individual_paths="false"
       simplify_just_coalesce="false"
       simplifyindividualpaths="false"
       simplifyJustCoalesce="false" />
    <inkscape:path-effect
       simplifyJustCoalesce="false"
       simplifyindividualpaths="false"
       simplify_just_coalesce="false"
       simplify_individual_paths="false"
       helper_size="0"
       smooth_angles="360"
       threshold="0.00243902"
       steps="1"
       is_visible="true"
       id="path-effect821"
       effect="simplify" />
  </defs>
  <metadata
     id="metadata5">
    <rdf:RDF>
      <cc:Work
         rdf:about="">
        <dc:format>image/svg+xml</dc:format>
        <dc:type
           rdf:resource="http://purl.org/dc/dcmitype/StillImage" />
        <dc:title></dc:title>
      </cc:Work>
    </rdf:RDF>
  </metadata>
  <g
     transform="translate(142.87368,-47.534356)"
     id="layer1"
     inkscape:groupmode="layer"
     inkscape:label="Layer 1" />
  <g
     id="g4606">
    <rect
       y="-0.036472619"
       x="-0.0013236"
       height="13.229167"
       width="13.229167"
       id="rect934"
       style="opacity:1;fill:#ffffff;fill-opacity:0.25098039;fill-rule:nonzero;stroke:none;stroke-width:0.66145837;stroke-linecap:butt;stroke-linejoin:round;stroke-miterlimit:4;stroke-dasharray:none;stroke-dashoffset:0;stroke-opacity:1" />
    <path
       inkscape:connector-curvature="0"
       id="path837"
       d="M 6.0509079,8.0840761 C 5.9900881,8.0780683 5.9418514,8.0674478 5.9004173,8.0509404 5.8354551,8.0250604 5.7652303,7.9826708 5.6963101,7.927737 5.6594798,7.8983791 5.5921649,7.831803 5.5665224,7.7993691 c -0.020541,-0.025981 -0.046975,-0.064262 -0.045437,-0.065802 5.75e-4,-5.251e-4 0.00913,0.00632 0.019093,0.015218 0.043415,0.038777 0.1011693,0.070519 0.1979816,0.108815 0.030871,0.012211 0.084488,0.034348 0.1191422,0.04919 0.09934,0.042546 0.1482077,0.059837 0.2130812,0.075396 0.098794,0.023696 0.2008763,0.020841 0.3221391,-0.009 C 6.5716879,7.9290948 6.7528337,7.8254637 6.9561399,7.6507492 7.2185173,7.4252719 7.4717407,7.1374545 7.722898,6.7792438 8.027946,6.344171 8.3150984,5.8176642 8.5368792,5.2867786 8.6809592,4.9418899 8.7372548,4.7838065 8.7714645,4.6280589 8.8035401,4.4820169 8.8055484,4.3526261 8.7772548,4.2540649 8.7433441,4.1359078 8.6644676,4.0519841 8.5412047,4.0029179 c -0.040934,-0.016293 -0.060626,-0.020979 -0.08821,-0.020979 -0.09803,0 -0.1903693,0.027292 -0.6012096,0.1776937 C 7.6706574,4.2259405 7.6531355,4.2319751 7.6094668,4.2430896 7.5340941,4.2622731 7.4768135,4.2693877 7.3981275,4.26933 7.2911147,4.2692617 7.2025555,4.2518616 7.1105819,4.2128576 7.0093571,4.169928 6.9103834,4.0976429 6.8587203,4.0289067 6.7856601,3.9317031 6.7322274,3.8276441 6.6904756,3.7012653 6.6667644,3.6294844 6.6505976,3.5652107 6.6236233,3.435486 6.6070349,3.355695 6.5968522,3.3118155 6.5866732,3.2762475 6.5410491,3.116831 6.4670004,3.0464525 6.3250106,3.0275491 6.2960361,3.0236939 6.2159429,3.0231864 6.17806,3.026624 6.082135,3.035324 5.9744458,3.057449 5.8181637,3.10058 5.683207,3.137825 5.6396968,3.138636 5.6451581,3.10381 5.6528781,3.054565 5.7887825,2.8772742 5.8822909,2.7944623 c 0.013113,-0.011618 0.03135,-0.029673 0.040513,-0.040121 0.028855,-0.032909 0.03269,-0.048585 0.013486,-0.05514 -0.019373,-0.00661 -0.064763,0.00228 -0.1799322,0.035231 -0.037243,0.010658 -0.080031,0.021891 -0.095084,0.024964 -0.015053,0.00307 -0.062424,0.014363 -0.1052701,0.025088 -0.1368258,0.034252 -0.1994079,0.044987 -0.2622646,0.044987 -0.05869,0 -0.092653,-0.00772 -0.1228636,-0.027927 -0.064471,-0.043119 -0.070246,-0.1315193 -0.018949,-0.2899525 0.056217,-0.1736263 0.1549528,-0.3427404 0.2852,-0.4884909 0.030038,-0.033612 0.093615,-0.096858 0.1240775,-0.1234278 0.1798623,-0.1568816 0.3961783,-0.2659895 0.6294595,-0.3174922 0.1753365,-0.03871 0.355087,-0.043055 0.5315593,-0.012849 0.2316759,0.039655 0.4458971,0.138375 0.6266429,0.2887796 0.068369,0.056893 0.1265408,0.1167999 0.1853795,0.1909146 0.033701,0.042447 0.051832,0.069641 0.090769,0.1361328 0.018973,0.032399 0.035857,0.058908 0.037523,0.058908 0.00165,0 0.00439,-0.00361 0.00605,-0.00802 C 7.7423687,2.0401105 7.8310467,1.8631482 7.9441438,1.6861536 8.1248181,1.4033971 8.3644214,1.1328677 8.6559957,0.88241801 c 0.044845,-0.0385196 0.1222146,-0.10181277 0.1490215,-0.121909 0.020554,-0.0154055 0.057671,-0.0362304 0.08366,-0.0469353 0.017193,-0.00708 0.021679,-0.007975 0.040233,-0.008012 0.024159,-4.852e-5 0.030475,0.003171 0.037779,0.0192532 0.017323,0.0381488 -0.014693,0.0905117 -0.085047,0.13906698 C 8.7194484,0.97583081 8.4950117,1.2185716 8.2950902,1.4982746 8.2007797,1.6302222 8.0828473,1.8232341 8.0543034,1.8923612 c -0.00392,0.00945 -0.023969,0.052397 -0.044584,0.095435 -0.052726,0.1100696 -0.075773,0.1651771 -0.09057,0.2165554 -0.018928,0.065723 -0.017188,0.1074142 0.00528,0.1266462 0.017353,0.014855 0.025214,0.015205 0.1117948,0.00498 0.2944683,-0.034768 0.5393448,-0.01355 0.7536315,0.065302 0.1385469,0.050982 0.2851225,0.1371685 0.4076437,0.2396966 0.2534036,0.2120541 0.4286037,0.5227124 0.4836072,0.8575136 0.014946,0.090971 0.019513,0.1544053 0.017816,0.2474494 -0.00252,0.1372644 -0.021263,0.2479417 -0.063327,0.3735787 -0.033911,0.1012783 -0.070263,0.1690732 -0.113586,0.2118231 -0.029168,0.028785 -0.055738,0.042071 -0.088225,0.04412 -0.039032,0.00248 -0.06697,-0.010561 -0.1259398,-0.058706 -0.028269,-0.023076 -0.090007,-0.08301 -0.1289515,-0.1251775 -0.015131,-0.016383 -0.050216,-0.056996 -0.077966,-0.090254 -0.059264,-0.071025 -0.089843,-0.1036922 -0.092841,-0.099176 -0.00103,0.00165 -0.00268,0.015583 -0.00359,0.030929 -0.00215,0.038653 -0.011633,0.1304438 -0.018661,0.1807073 C 8.9249727,4.649107 8.7653287,5.0935707 8.4543664,5.69346 8.3589936,5.8774482 8.2168895,6.1414306 8.1719235,6.2181447 7.7999799,6.8527022 7.3887535,7.3687093 6.9891291,7.7023092 6.7425332,7.9081633 6.4934297,8.0422405 6.2966039,8.0750536 c -0.075915,0.012656 -0.1728614,0.016216 -0.2457218,0.00902 z"
       style="fill:#ffffff;stroke-width:2.5" />
    <text
       id="text845"
       y="4.1082416"
       x="9.5185633"
       style="font-style:normal;font-weight:normal;font-size:0.55290484px;line-height:1.25;font-family:sans-serif;letter-spacing:0px;word-spacing:0px;fill:#000000;fill-opacity:1;stroke:none;stroke-width:0.66145831"
       xml:space="preserve"><tspan
         style="stroke-width:0.66145831"
         y="4.6126733"
         x="9.5185633"
         id="tspan843"
         sodipodi:role="line" /></text>
    <g
       id="text846"
       style="font-style:normal;font-variant:normal;font-weight:normal;font-stretch:normal;font-size:2.33881617px;line-height:1.25;font-family:'Century Gothic';-inkscape-font-specification:'Century Gothic, Normal';font-variant-ligatures:normal;font-variant-caps:normal;font-variant-numeric:normal;font-feature-settings:normal;text-align:start;letter-spacing:0px;word-spacing:0px;writing-mode:lr-tb;text-anchor:start;fill:#ffffff;fill-opacity:1;stroke:none;stroke-width:0.26458335"
       aria-label="FL STUDIO">
      <path
         id="path4568"
         style="font-style:normal;font-variant:normal;font-weight:normal;font-stretch:normal;font-size:2.33881617px;font-family:'Century Gothic';-inkscape-font-specification:'Century Gothic, Normal';font-variant-ligatures:normal;font-variant-caps:normal;font-variant-numeric:normal;font-feature-settings:normal;text-align:start;writing-mode:lr-tb;text-anchor:start;fill:#ffffff;stroke-width:0.26458335"
         d="m 1.3526365,9.8093185 h 0.8416541 v 0.16559 H 1.5193685 v 0.5253205 h 0.6749221 v 0.16559 H 1.5193685 v 0.823382 h -0.166732 z" />
      <path
         id="path4570"
         style="font-style:normal;font-variant:normal;font-weight:normal;font-stretch:normal;font-size:2.33881617px;font-family:'Century Gothic';-inkscape-font-specification:'Century Gothic, Normal';font-variant-ligatures:normal;font-variant-caps:normal;font-variant-numeric:normal;font-feature-settings:normal;text-align:start;writing-mode:lr-tb;text-anchor:start;fill:#ffffff;stroke-width:0.26458335"
         d="m 2.4855006,9.8093185 h 0.1690161 v 1.5177185 h 0.64523 v 0.162164 H 2.4855006 Z" />
      <path
         id="path4572"
         style="font-style:normal;font-variant:normal;font-weight:normal;font-stretch:normal;font-size:2.33881617px;font-family:'Century Gothic';-inkscape-font-specification:'Century Gothic, Normal';font-variant-ligatures:normal;font-variant-caps:normal;font-variant-numeric:normal;font-feature-settings:normal;text-align:start;writing-mode:lr-tb;text-anchor:start;fill:#ffffff;stroke-width:0.26458335"
         d="m 4.0431887,11.176293 0.14275,-0.08565 q 0.1507441,0.277506 0.3483101,0.277506 0.084508,0 0.158738,-0.03883 0.07423,-0.03997 0.113058,-0.106206 0.038828,-0.06624 0.038828,-0.140466 0,-0.08451 -0.0571,-0.16559 -0.078798,-0.111916 -0.287784,-0.269512 -0.210128,-0.158738 -0.2615181,-0.229542 -0.089076,-0.118768 -0.089076,-0.256951 0,-0.109632 0.052532,-0.1998495 0.052532,-0.090218 0.1473181,-0.141608 0.095928,-0.052532 0.207844,-0.052532 0.118768,0 0.221548,0.059384 0.103922,0.058242 0.219264,0.2158375 l -0.13704,0.103922 q -0.094786,-0.12562 -0.162164,-0.1655895 -0.066236,-0.03997 -0.145034,-0.03997 -0.101638,0 -0.166732,0.061668 -0.063952,0.06167 -0.063952,0.151886 0,0.05482 0.02284,0.106207 0.02284,0.05139 0.083366,0.111916 0.033118,0.03198 0.21698,0.167874 0.218122,0.161022 0.299204,0.286642 0.081082,0.12562 0.081082,0.252382 0,0.18272 -0.139324,0.317476 -0.138182,0.134756 -0.33689,0.134756 -0.153028,0 -0.277506,-0.08108 -0.1244781,-0.08222 -0.2295421,-0.27408 z" />
      <path
         id="path4574"
         style="font-style:normal;font-variant:normal;font-weight:normal;font-stretch:normal;font-size:2.33881617px;font-family:'Century Gothic';-inkscape-font-specification:'Century Gothic, Normal';font-variant-ligatures:normal;font-variant-caps:normal;font-variant-numeric:normal;font-feature-settings:normal;text-align:start;writing-mode:lr-tb;text-anchor:start;fill:#ffffff;stroke-width:0.26458335"
         d="m 5.214881,9.9726245 v -0.163306 h 0.921594 v 0.163306 H 5.761899 v 1.5165765 h -0.1713 V 9.9726245 Z" />
      <path
         id="path4576"
         style="font-style:normal;font-variant:normal;font-weight:normal;font-stretch:normal;font-size:2.33881617px;font-family:'Century Gothic';-inkscape-font-specification:'Century Gothic, Normal';font-variant-ligatures:normal;font-variant-caps:normal;font-variant-numeric:normal;font-feature-settings:normal;text-align:start;writing-mode:lr-tb;text-anchor:start;fill:#ffffff;stroke-width:0.26458335"
         d="m 6.3831468,9.8093185 h 0.167874 v 1.0140965 q 0,0.180436 0.00685,0.224974 0.012562,0.09935 0.058242,0.166732 0.04568,0.06624 0.1404661,0.111916 0.094786,0.04454 0.190714,0.04454 0.083366,0 0.15988,-0.0354 0.076514,-0.0354 0.127904,-0.09821 0.05139,-0.06281 0.075372,-0.151886 0.01713,-0.06395 0.01713,-0.26266 V 9.8093185 h 0.167874 v 1.0140965 q 0,0.224974 -0.044538,0.364298 -0.043396,0.138182 -0.175868,0.240962 -0.13133,0.10278 -0.318618,0.10278 -0.203276,0 -0.3483101,-0.09707 -0.145034,-0.09707 -0.19414,-0.25695 -0.030834,-0.09821 -0.030834,-0.35402 z" />
      <path
         id="path4578"
         style="font-style:normal;font-variant:normal;font-weight:normal;font-stretch:normal;font-size:2.33881617px;font-family:'Century Gothic';-inkscape-font-specification:'Century Gothic, Normal';font-variant-ligatures:normal;font-variant-caps:normal;font-variant-numeric:normal;font-feature-settings:normal;text-align:start;writing-mode:lr-tb;text-anchor:start;fill:#ffffff;stroke-width:0.26458335"
         d="M 7.9077169,11.489201 V 9.8093185 H 8.256027 q 0.37686,0 0.547018,0.060526 0.244388,0.08565 0.381428,0.2969195 0.138182,0.211271 0.138182,0.503623 0,0.252382 -0.109632,0.444238 -0.10849,0.191856 -0.283216,0.283216 -0.173584,0.09136 -0.487634,0.09136 z M 8.068739,11.330463 h 0.19414 q 0.34831,0 0.483066,-0.0434 0.189572,-0.06167 0.298062,-0.221548 0.10849,-0.161022 0.10849,-0.392848 0,-0.243246 -0.117626,-0.415688 Q 8.917245,10.08454 8.707117,10.020588 8.549521,9.9726245 8.187507,9.9726245 H 8.068739 Z" />
      <path
         id="path4580"
         style="font-style:normal;font-variant:normal;font-weight:normal;font-stretch:normal;font-size:2.33881617px;font-family:'Century Gothic';-inkscape-font-specification:'Century Gothic, Normal';font-variant-ligatures:normal;font-variant-caps:normal;font-variant-numeric:normal;font-feature-settings:normal;text-align:start;writing-mode:lr-tb;text-anchor:start;fill:#ffffff;stroke-width:0.26458335"
         d="m 9.6241429,9.8093185 h 0.167874 v 1.6798825 h -0.167874 z" />
      <path
         id="path4582"
         style="font-style:normal;font-variant:normal;font-weight:normal;font-stretch:normal;font-size:2.33881617px;font-family:'Century Gothic';-inkscape-font-specification:'Century Gothic, Normal';font-variant-ligatures:normal;font-variant-caps:normal;font-variant-numeric:normal;font-feature-settings:normal;text-align:start;writing-mode:lr-tb;text-anchor:start;fill:#ffffff;stroke-width:0.26458335"
         d="m 10.978555,9.7670645 q 0.381428,0 0.638378,0.2546655 0.25695,0.254667 0.25695,0.626959 0,0.368866 -0.25695,0.625816 -0.255808,0.25695 -0.624674,0.25695 -0.373434,0 -0.630384,-0.255808 -0.25695,-0.255808 -0.25695,-0.618964 0,-0.242104 0.116484,-0.448806 0.117626,-0.206703 0.31976,-0.3231865 0.202134,-0.117626 0.437386,-0.117626 z m 0.008,0.164448 q -0.186146,0 -0.352878,0.097069 -0.166732,0.09707 -0.260376,0.261519 -0.09364,0.164448 -0.09364,0.366582 0,0.299204 0.206702,0.505906 0.207844,0.20556 0.500196,0.20556 0.195282,0 0.360872,-0.09479 0.166732,-0.09479 0.259234,-0.259234 0.09364,-0.164448 0.09364,-0.36544 0,-0.19985 -0.09364,-0.360872 -0.0925,-0.162165 -0.261518,-0.259235 -0.169016,-0.097069 -0.358588,-0.097069 z" />
    </g>
  </g>
</svg>
