<svg xmlns="http://www.w3.org/2000/svg" width="360.6" height="718">
<rect id="backgroundrect" width="100%" height="100%" fill="none" />
<g id="New_Phone_X2018" data-name="New Phone X2018">
<path id="Button_4" data-name="Button 4" fill="#ccc" d="M356.8 246.5h3.8v-83.6h-3.8" />
<path id="Button_3" data-name="Button 3" fill="#ccc" d="M3.8 146.7H0v50.8h3.8" />
<path id="Button_2" data-name="Button 2" fill="#ccc" d="M3.8 211.9H0v50.9h3.8" />
<path id="Button_1" data-name="Button 1" fill="#ccc" d="M3.8 94.4H0v27.2h3.8" />
<path id="Background" fill="#f3f3f3" d="M356.8 52.1A52.07 52.07 0 0 0 304.7 0H55.9A52.07 52.07 0 0 0 3.8 52.1v613.8A52.07 52.07 0 0 0 55.9 718h248.8a52.07 52.07 0 0 0 52.1-52.1V52.1zm-8 613.3a44.64 44.64 0 0 1-44.6 44.6H55.4a44.64 44.64 0 0 1-44.6-44.6V51.6A44.64 44.64 0 0 1 55.4 7h248.8a44.64 44.64 0 0 1 44.6 44.6z" />
</g>
</svg>